<?xml version="1.0" encoding="UTF-8" standalone="no"?>
<!DOCTYPE svg PUBLIC "-//W3C//DTD SVG 1.1//EN" "http://www.w3.org/Graphics/SVG/1.1/DTD/svg11.dtd">
<svg width="100%" height="100%" viewBox="0 0 37 53" version="1.1" xmlns="http://www.w3.org/2000/svg" xmlns:xlink="http://www.w3.org/1999/xlink" xml:space="preserve" xmlns:serif="http://www.serif.com/" style="fill-rule:evenodd;clip-rule:evenodd;stroke-linecap:round;stroke-linejoin:round;stroke-miterlimit:10;">
    <g id="g5924" transform="matrix(0.176943,0,0,0.176943,22.0059,27.6794)">
        <path id="path5926" d="M-121.268,-150.8L-122.95,-148.518L-122.358,-145.746L-121.475,-143.053L-120.3,-140.473L-118.616,-138.192L-116.156,-136.785L-113.649,-135.461L-111.122,-134.178L-108.568,-132.948L-105.908,-131.968L-103.372,-130.7L-100.905,-129.305L-98.392,-127.993L-95.777,-126.898L-93.164,-125.801L-90.699,-124.402L-88.367,-122.789L-86.169,-121L-84.082,-119.082L-82.021,-117.135L-79.981,-115.168L-77.952,-113.188L-75.927,-111.204L-73.904,-109.218L-71.882,-107.232L-70.264,-104.905L-69.024,-102.356L-67.803,-99.797L-66.343,-97.367L-64.943,-94.902L-63.595,-92.409L-62.319,-89.878L-61.29,-87.237L-60.73,-84.458L-60.228,-81.668L-59.295,-78.991L-58.372,-76.311L-57.794,-73.536L-57.495,-70.717L-57.373,-67.885L-57.293,-65.052L-57.239,-62.217L-57.201,-59.383L-57.173,-56.549L-57.147,-53.714L-57.122,-50.88L-57.074,-45.21L-57.132,-42.376L-57.724,-39.604L-58.431,-36.859L-59.198,-34.13L-59.532,-31.315L-59.645,-28.483L-59.689,-25.649L-59.697,-22.814L-59.684,-19.979L-59.667,-17.145L-59.647,-14.31L-59.624,-11.476L-59.601,-8.641L-59.578,-5.807L-59.554,-2.972L-59.126,48.05L-59.098,50.884L-58.455,53.645L-57.721,56.383L-56.891,59.094L-56.547,61.907L-56.322,64.733L-56.205,67.565L-56.137,70.399L-55.596,73.181L-54.85,75.916L-54,78.621L-52.938,81.249L-51.9,83.886L-50.928,86.549L-49.992,89.225L-48.641,91.717L-46.933,93.98L-45.022,96.072L-42.794,97.825L-40.379,99.31L-37.929,100.735L-35.53,102.245L-33.146,103.779L-30.759,105.308L-28.281,106.685L-25.77,108L-23.309,109.407L-20.898,110.897L-18.716,112.707L-16.783,114.78L-15.033,117.01L-13.111,119.094L-11.124,121.115L-9.122,123.122L-7.158,125.166L-5.442,127.422L-3.625,129.598L-1.709,131.686L0.623,133.299L2.792,135.124L4.999,136.903L7.307,138.548L9.849,139.803L12.496,140.818L15.288,141.307L18.12,141.432L20.954,141.49L23.785,141.342L26.506,140.549L29.199,139.664L31.888,138.767L34.567,137.842L36.858,136.172L39.339,134.8L41.931,133.653L44.583,132.654L47.054,131.265L49.306,129.543L51.395,127.627L53.692,125.966L56.119,124.502L58.562,123.064L60.94,121.521L63.301,119.952L65.649,118.363L67.786,116.502L69.671,114.384L71.233,112.019L72.642,109.559L74.155,107.162L75.431,104.631L76.527,102.017L77.712,99.442L78.734,96.798L79.681,94.126L80.584,91.439L81.636,88.807L82.38,86.072L82.678,83.253L82.762,80.419L82.802,77.585L82.81,74.75L82.798,71.916L82.782,69.081L82.762,66.246L82.74,63.412L82.716,60.577L82.669,54.908L82.574,43.57L82.047,40.785L81.209,38.077L80.322,35.384L79.998,32.568L79.785,29.742L79.658,26.91L78.99,24.155L78.139,21.451L77.26,18.756L76.932,15.941L76.255,13.188L75.401,10.485L74.337,7.857L73.375,5.191L72.43,2.519L71.498,-0.158L70.575,-2.838L69.653,-5.519L68.732,-8.2L67.607,-10.802L66.572,-13.441L65.598,-16.103L64.658,-18.777L63.583,-21.4L62.498,-24.019L61.513,-26.677L60.569,-29.35L59.551,-31.995L58.323,-34.55L56.544,-36.757L55.216,-39.261L54.08,-41.858L53.073,-44.508L51.533,-46.888L49.759,-49.099L47.842,-51.186L46.534,-53.701L45.377,-56.289L44.35,-58.931L42.724,-61.253L40.921,-63.44L39.014,-65.537L37.467,-67.913L36.288,-70.491L35.049,-73.04L33.592,-75.472L31.87,-77.724L30.016,-79.868L28.061,-81.92L26.071,-83.939L24.067,-85.943L22.053,-87.938L20.035,-89.929L18.015,-91.918L15.995,-93.906L13.974,-95.894L11.953,-97.882L9.932,-99.869L7.911,-101.857L5.89,-103.844L1.848,-107.819L-0.174,-109.807L-2.195,-111.794L-4.216,-113.782L-6.237,-115.77L-8.258,-117.757L-10.385,-119.631L-12.667,-121.313L-14.994,-122.931L-17.338,-124.525L-19.797,-125.935L-22.295,-127.276L-24.675,-128.815L-26.882,-130.594L-29.206,-132.216L-31.675,-133.609L-34.27,-134.75L-36.84,-135.947L-39.322,-137.316L-41.751,-138.777L-44.372,-139.857L-46.975,-140.979L-49.55,-142.164L-52.108,-143.386L-54.77,-144.36L-57.446,-145.294L-60.133,-146.199L-62.741,-147.308L-65.4,-148.292L-68.13,-149.054L-70.949,-149.352L-73.714,-149.974L-76.454,-150.702L-79.169,-151.518L-81.962,-152L-84.741,-152.56L-87.476,-153.304L-90.186,-154.135L-92.975,-154.645L-95.798,-154.898L-98.632,-154.971L-101.466,-155.007L-104.301,-155.014L-107.135,-155.001L-109.97,-154.984L-112.804,-154.964L-115.608,-154.542L-118.154,-153.296L-120.366,-151.523L-121.268,-150.8Z" style="fill:none;fill-rule:nonzero;stroke:black;stroke-width:2.83px;"/>
    </g>
</svg>
